\relax 
\citation{キー1}
\citation{キー2}
\citation{キー3}
\@writefile{toc}{\contentsline {section}{\numberline {1}アイディアの説明}{2}}
\@writefile{toc}{\contentsline {section}{\numberline {2}設計方法、理論}{2}}
\@writefile{toc}{\contentsline {subsection}{\numberline {2.1}設計方法}{2}}
\@writefile{toc}{\contentsline {subsubsection}{\numberline {2.1.1}理論}{2}}
\@writefile{lof}{\contentsline {figure}{\numberline {1}{\ignorespaces Dフリップフロップ論理回路}}{2}}
\newlabel{fig:1}{{1}{2}}
\@writefile{lof}{\contentsline {figure}{\numberline {2}{\ignorespaces JKフリップフロップ論理回路}}{2}}
\newlabel{fig:2}{{2}{2}}
\citation{キー4}
\@writefile{lof}{\contentsline {figure}{\numberline {3}{\ignorespaces 7セグメントの真理値表}}{3}}
\newlabel{fig:3}{{3}{3}}
\citation{キー5}
\citation{キー6}
\@writefile{lof}{\contentsline {figure}{\numberline {4}{\ignorespaces 7セグメントドライバの論理回路}}{4}}
\newlabel{fig:3}{{4}{4}}
\@writefile{lof}{\contentsline {figure}{\numberline {5}{\ignorespaces 7セグメント回路}}{4}}
\newlabel{fig:3}{{5}{4}}
\@writefile{toc}{\contentsline {section}{\numberline {3}回路動作の説明}{5}}
\@writefile{toc}{\contentsline {section}{\numberline {4}回路図、実体配線図}{5}}
\@writefile{toc}{\contentsline {section}{\numberline {5}結果}{5}}
\newlabel{fig:3}{{5}{6}}
\newlabel{fig:3}{{5}{7}}
\newlabel{fig:3}{{5}{8}}
\newlabel{fig:3}{{5}{9}}
\newlabel{fig:3}{{5}{10}}
\newlabel{fig:3}{{5}{11}}
\newlabel{fig:3}{{5}{12}}
\bibcite{キー1}{1}
\bibcite{キー2}{2}
\bibcite{キー3}{3}
\bibcite{キー4}{4}
\bibcite{キー5}{5}
\bibcite{キー6}{6}
